%YAML 1.1
%TAG !u! tag:unity3d.com,2011:
--- !u!114 &11400000
MonoBehaviour:
  m_ObjectHideFlags: 0
  m_CorrespondingSourceObject: {fileID: 0}
  m_PrefabInstance: {fileID: 0}
  m_PrefabAsset: {fileID: 0}
  m_GameObject: {fileID: 0}
  m_Enabled: 1
  m_EditorHideFlags: 0
  m_Script: {fileID: 11500000, guid: f42f06ff6cc543ea942180e019f0fc8d, type: 3}
  m_Name: UIButton_StartPage
  m_EditorClassIdentifier: 
  CategoryName: StartPage
  DatabaseType: 0
  Names:
  - AI_Play
  - GeneralSettings
  - Stats
  - Multiplayer
  - Quit
  - QuitYes
  - QuitCancel
  - SettingsLoadDefaults
  - Play
  - Tutorial_Play
  - PvP_Play
  - Stats_Reset
