%YAML 1.1
%TAG !u! tag:unity3d.com,2011:
--- !u!1045 &1
EditorBuildSettings:
  m_ObjectHideFlags: 0
  serializedVersion: 2
  m_Scenes:
  - enabled: 1
    path: Assets/Scenes/Start/StartScene.unity
    guid: 2cda990e2423bbf4892e6590ba056729
  - enabled: 1
    path: Assets/Scenes/Game/GameScene.unity
    guid: 998e0fb306f22364b89fd60262bbcf9a
  - enabled: 1
    path: Assets/Scenes/Tutorial/TutorialScene.unity
    guid: ff848518fc72c3449a861b067aca6b2e
  m_configObjects: {}
